{
    "name": "ProfileModul",
    "alias": "profilemodul",
    "description": "",
    "keywords": [],
    "priority": 0,
    "providers": [
        "Modules\\ProfileModul\\Providers\\ProfileModulServiceProvider"
    ],
    "aliases": {},
    "files": [],
    "requires": []
}
