{
    "name": "WhatappNotif",
    "alias": "whatappnotif",
    "description": "",
    "keywords": [],
    "priority": 0,
    "providers": [
        "Modules\\WhatappNotif\\Providers\\WhatappNotifServiceProvider"
    ],
    "aliases": {},
    "files": [],
    "requires": []
}
