{
    "name": "DSS",
    "alias": "dss",
    "description": "",
    "keywords": [],
    "priority": 0,
    "providers": [
        "Modules\\DSS\\Providers\\DSSServiceProvider"
    ],
    "aliases": {},
    "files": [],
    "requires": []
}
