{
    "name": "ProfileModulBuild",
    "alias": "profilemodulbuild",
    "description": "",
    "keywords": [],
    "priority": 0,
    "providers": [
        "Modules\\ProfileModulBuild\\Providers\\ProfileModulBuildServiceProvider"
    ],
    "aliases": {},
    "files": [],
    "requires": []
}
