{
    "restartable": "rs",
    "ignore": [
      ".git",
      "node_modules/**/node_modules"
    ],
    "verbose": true,
    "execMap": {
      "js": "node --harmony"
    },
    "events": {
      "restart": "osascript -e 'display notification \"App restarted due to:\n'$FILENAME'\" with title \"nodemon\"'"
    },
    "watch": [
      "src/*.js",
      "start.js"
    ],
    "env": {
      "NODE_ENV": "development",
      "PORT":3100
    },
    "ext": "js,json"
  }